---
http_interactions:
- request:
    method: get
    uri: https://api.themoviedb.org/3/search/movie?api_key=<DONT_USE_MY_API_KEY>&page=1&query=Fight%20Club
    body:
      encoding: US-ASCII
      string: ''
    headers:
      User-Agent:
      - Faraday v1.0.1
      Accept-Encoding:
      - gzip;q=1.0,deflate;q=0.6,identity;q=0.3
      Accept:
      - "*/*"
  response:
    status:
      code: 200
      message: OK
    headers:
      Content-Type:
      - application/json;charset=utf-8
      Transfer-Encoding:
      - chunked
      Connection:
      - keep-alive
      Date:
      - Wed, 09 Dec 2020 22:51:10 GMT
      Server:
      - openresty
      Access-Control-Allow-Origin:
      - "*"
      Access-Control-Allow-Methods:
      - GET, HEAD, POST, PUT, DELETE, OPTIONS
      Access-Control-Expose-Headers:
      - ETag, X-RateLimit-Limit, X-RateLimit-Remaining, X-RateLimit-Reset, Retry-After,
        Content-Length, Content-Range
      Cache-Control:
      - public, max-age=600
      Vary:
      - Accept-Encoding
      X-Cache:
      - Miss from cloudfront
      Via:
      - 1.1 1e5c934b70471a41d2b61ae8c4abeb79.cloudfront.net (CloudFront)
      X-Amz-Cf-Pop:
      - DEN50-C2
      X-Amz-Cf-Id:
      - xi9ihba9zcUFUFY3039KURHuYNrMwHnTJXiQYd3EmBR0-GjIfuglpw==
    body:
      encoding: UTF-8
      string: '{"page":1,"results":[{"adult":false,"backdrop_path":"/rr7E0NoGKxvbkb89eR1GwfoYjpA.jpg","genre_ids":[18],"id":550,"original_language":"en","original_title":"Fight
        Club","overview":"A ticking-time-bomb insomniac and a slippery soap salesman
        channel primal male aggression into a shocking new form of therapy. Their
        concept catches on, with underground \"fight clubs\" forming in every town,
        until an eccentric gets in the way and ignites an out-of-control spiral toward
        oblivion.","popularity":38.272,"poster_path":"/bptfVGEQuv6vDTIMVCHjJ9Dz8PX.jpg","release_date":"1999-10-15","title":"Fight
        Club","video":false,"vote_average":8.4,"vote_count":20565},{"adult":false,"backdrop_path":null,"genre_ids":[28,14],"id":722482,"original_language":"en","original_title":"Superhero
        Fight Club 2.0","overview":"","popularity":3.707,"poster_path":"/j2cA1s0OLvSVVbqqHk1a7aZotCy.jpg","release_date":"2016-09-29","title":"Superhero
        Fight Club 2.0","video":false,"vote_average":7,"vote_count":4},{"adult":false,"backdrop_path":"/u0a4CSy73GP11wVPz8hm0tHQwci.jpg","genre_ids":[28,878],"id":466848,"original_language":"en","original_title":"Superhero
        Fight Club","overview":"Oliver introduces Barry to his own little fight club
        which features such members as Roy Harper, Laurel Lance, Malcolm Merlyn and
        Ra''s Al Ghul.","popularity":1.953,"poster_path":"/zjPn7JUg2tsxlRWp4luK0YVX48Y.jpg","release_date":"2015-04-13","title":"Superhero
        Fight Club","video":false,"vote_average":7.3,"vote_count":25},{"adult":false,"backdrop_path":null,"genre_ids":[28,80,18],"id":51021,"original_language":"en","original_title":"Lure:
        Teen Fight Club","overview":"A community is under siege as three Belmont Highschool
        coed students go missing with no trace of their whereabouts. The pressure
        is on the police to capture the culprits responsible. Scouring the school
        hallways in search of clues, undercover female detective Maggie Rawdon (Jessica
        Sonnerborn) enters Belmont High as a transfer student in an attempt to solve
        the hideous disappearance of the students. Maggie makes a few new friends,
        and gets invited to a private rave in the country. Just as the group begins
        to suspect that they''ve taken a wrong turn, however, the trap is sprung and
        Maggie finds out firsthand what fate has befallen the missing girls.","popularity":3.052,"poster_path":"/ipl6NdM0LwyakzLH9gKBDn8YhmZ.jpg","release_date":"2010-11-16","title":"Lure:
        Teen Fight Club","video":false,"vote_average":5,"vote_count":7},{"adult":false,"backdrop_path":null,"genre_ids":[99],"id":259016,"original_language":"en","original_title":"Insane
        Fight Club","overview":"A group of friends have created a brand new subculture
        that is taking over the streets of Glasgow. They''ve established their very
        own fight club, but this is no ordinary wrestling event - this is brutal,
        riotous chaos. Fights don''t always stay inside the ring, people are bounced
        off the side of buses and thrown off balconies in pubs. They now plan the
        biggest show of their lives. The stakes are high, will it bring them the fame
        and recognition they need to survive?","popularity":2.208,"poster_path":null,"release_date":"2014-03-11","title":"Insane
        Fight Club","video":false,"vote_average":0,"vote_count":0},{"adult":false,"backdrop_path":null,"genre_ids":[28],"id":347807,"original_language":"hi","original_title":"Fight
        Club: Members Only","overview":"Four friends head off to Bombay and get involved
        in the mother and father of all gang wars.","popularity":1.802,"poster_path":"/aXFmWfWYCCxQTkCn7K86RvDiMHZ.jpg","release_date":"2006-02-17","title":"Fight
        Club: Members Only","video":false,"vote_average":3.4,"vote_count":9},{"adult":false,"backdrop_path":null,"genre_ids":[28,12,99],"id":104782,"original_language":"it","original_title":"Florence
        Fight Club","overview":"Four men decided to enter in the oldest Fight Club
        of the History, The Florentine Football tournament. A father and son, a black
        guy, an old champion and outsider clerk will enter in an arena of the time
        to win their fears, to go over their limits, to be heroes for a day.","popularity":1.179,"poster_path":null,"release_date":"2010-01-01","title":"Florence
        Fight Club","video":false,"vote_average":0,"vote_count":0},{"adult":false,"backdrop_path":null,"genre_ids":[99],"id":322772,"original_language":"en","original_title":"Insane
        Fight Club II - This Time It’s Personal","overview":"Insane Fight Club is
        back. This year the boys are taking their unique form of entertainment to
        England as they stage fight nights in Birmingham, Leeds, Liverpool and Newcastle.","popularity":2.792,"poster_path":null,"release_date":"2015-01-21","title":"Insane
        Fight Club II - This Time It’s Personal","video":false,"vote_average":0,"vote_count":0},{"adult":false,"backdrop_path":null,"genre_ids":[],"id":289100,"original_language":"en","original_title":"Girls
        Fight Club","overview":"The best women''s wrestling competition of all time...and
        if you think it''s fake you''re in for a big surprise See LEGENDARY Mixed
        Martial Arts fighters coach their teams to victory in the cage! aka Chuck
        Lidell''s Girl''s Fight Club","popularity":0.6,"poster_path":null,"release_date":"2009-06-18","title":"Girls
        Fight Club","video":false,"vote_average":0,"vote_count":0},{"adult":false,"backdrop_path":null,"genre_ids":[99],"id":151912,"original_language":"en","original_title":"Jurassic
        Fight Club","overview":"Jurassic Fight Club, a paleontology-based miniseries
        that ran for 12 episodes, depicts how prehistoric beasts hunted their prey,
        dissecting these battles and uncovering a predatory world far more calculated
        and complex than originally thought. It was hosted by George Blasing, a self-taught
        paleontologist.","popularity":0.6,"poster_path":null,"release_date":"2008-10-22","title":"Jurassic
        Fight Club","video":false,"vote_average":6.7,"vote_count":3},{"adult":false,"backdrop_path":null,"genre_ids":[99],"id":532155,"original_language":"en","original_title":"Musangwe:
        Fight Club","overview":"The first rule is that there are no rules. For the
        bare-knuckle combatants competing in Musangwe fights, anything goes - you
        can even put a curse on him. The sport, which dates back centuries, has become
        a South African institution. Any male from the age of nine to ninety can compete.
        We follow a group of fighters as they slug it out in the ring. Who will be
        this year''s champion?","popularity":0.6,"poster_path":"/tZDxttt0LfgAKwvLIWyOO3fr01c.jpg","release_date":"2007-10-01","title":"Musangwe:
        Fight Club","video":false,"vote_average":6.3,"vote_count":3},{"adult":false,"backdrop_path":null,"genre_ids":[],"id":295477,"original_language":"da","original_title":"Fight
        club camp kusse","overview":"","popularity":0.6,"poster_path":"/4kQyWM9i2UwLcbScNeIn1YTm7HT.jpg","release_date":"2005-08-12","title":"Fight
        club camp kusse","video":false,"vote_average":0,"vote_count":0},{"adult":false,"backdrop_path":"/A34w8ugqo1i9lah6nOgQONocs0D.jpg","genre_ids":[35],"id":488671,"original_language":"da","original_title":"Comedy
        Fight Club Live","overview":"","popularity":0.6,"poster_path":"/yrOE92bDvzClGDpsDu8JkUssuuA.jpg","release_date":"2017-04-03","title":"Comedy
        Fight Club Live","video":false,"vote_average":0,"vote_count":0},{"adult":false,"backdrop_path":null,"genre_ids":[99],"id":209599,"original_language":"en","original_title":"Brooklyn
        Girls Fight Club","overview":"From the birthplace of boxing legend Mike Tyson,
        young women brawl in secret fight clubs to win $1000 and invaluable street
        cred.","popularity":0.6,"poster_path":null,"title":"Brooklyn Girls Fight Club","video":false,"vote_average":7,"vote_count":1},{"adult":false,"backdrop_path":null,"genre_ids":[99],"id":468371,"original_language":"en","original_title":"Nixon
        Newell: First Female of Fight Club","overview":"Since 2013, Nixon Newell has
        travelled the world as a professional wrestler. This is the story of her goodbye
        to independent wrestling.","popularity":0.6,"poster_path":null,"release_date":"2017-07-26","title":"Nixon
        Newell: First Female of Fight Club","video":false,"vote_average":0,"vote_count":0},{"adult":false,"backdrop_path":null,"genre_ids":[16,35],"id":615408,"original_language":"en","original_title":"Fight
        Club But With Tennis And No Fight","overview":"Drama descends upon two tennis-obsessed
        women as the tension moves from off the court and into the café.","popularity":0.6,"poster_path":"/8pEQqVtSpgCtb7dzhR55EO1dC3l.jpg","release_date":"2019-07-13","title":"Fight
        Club But With Tennis And No Fight","video":false,"vote_average":0,"vote_count":0},{"adult":false,"backdrop_path":null,"genre_ids":[],"id":653285,"original_language":"en","original_title":"Fight
        Club Pro Project Mayhem VIII Night One","overview":"The rivalry between Fight
        Club: PRO management and the Schadenfreude faction led by Tipton’s Chris Brookes
        ended in stunning fashion across both nights of the promotion’s eighth annual
        Project Mayhem weekender.  Night one events followed by a second night of
        action.","popularity":0.6,"poster_path":null,"release_date":"2019-09-27","title":"Fight
        Club Pro Project Mayhem VIII Night One","video":false,"vote_average":0,"vote_count":0},{"adult":false,"backdrop_path":null,"genre_ids":[],"id":653286,"original_language":"en","original_title":"Fight
        Club Pro Project Mayhem VIII Night Two","overview":"The rules saw participants
        enter in staggered intervals, with the last person due to enter being Wolverhampton’s
        Trent Seven. However the WWE superstar never made it to the ring, ultimately
        being thrown off the entrance stage and through a table.  Fight Club: PRO
        wouldn’t be disadvantaged for long, with Jimmy Havoc making yet another surprise
        appearance at Project Mayhem, to aid the promotion.  Birmingham’s Dan Moloney
        would ultimately secure the pinfall for Fight Club: PRO, piledriving Kyle
        Fletcher through a table.","popularity":0.6,"poster_path":null,"release_date":"2019-09-28","title":"Fight
        Club Pro Project Mayhem VIII Night Two","video":false,"vote_average":0,"vote_count":0},{"adult":false,"backdrop_path":"/qziKhMyrVqj567jlbj55GpBdKf9.jpg","genre_ids":[28],"id":440777,"original_language":"en","original_title":"Female
        Fight Squad","overview":"A former fighter reluctantly returns to the life
        she abandoned in order to help her sister survive the sadistic world of illegal
        fighting and the maniac who runs it.","popularity":12.283,"poster_path":"/iI9c8XNdPuwB4RYbHMd62QNhoRK.jpg","release_date":"2017-03-16","title":"Female
        Fight Squad","video":false,"vote_average":6.7,"vote_count":59},{"adult":false,"backdrop_path":"/1VqE5z4VIOcNcajJuHLk4fDkY9G.jpg","genre_ids":[28,27],"id":289732,"original_language":"zh","original_title":"屍城","overview":"It''s
        the end of the century at a corner of the city in a building riddled with
        crime - Everyone in the building has turned into zombies. After Jenny''s boyfriend
        is killed in a zombie attack, she faces the challenge of surviving in the
        face of adversity. In order to stay alive, she struggles with Andy to flee
        danger.","popularity":2.395,"poster_path":"/u8u3KVq0qfJYmNDsaTVOXy4So6f.jpg","release_date":"2014-10-23","title":"Zombie
        Fight Club","video":false,"vote_average":3.7,"vote_count":21}],"total_pages":2,"total_results":22}'
  recorded_at: Wed, 09 Dec 2020 22:51:10 GMT
- request:
    method: get
    uri: https://api.themoviedb.org/3/search/movie?api_key=<DONT_USE_MY_API_KEY>&page=2&query=Fight%20Club
    body:
      encoding: US-ASCII
      string: ''
    headers:
      User-Agent:
      - Faraday v1.0.1
      Accept-Encoding:
      - gzip;q=1.0,deflate;q=0.6,identity;q=0.3
      Accept:
      - "*/*"
  response:
    status:
      code: 200
      message: OK
    headers:
      Content-Type:
      - application/json;charset=utf-8
      Transfer-Encoding:
      - chunked
      Connection:
      - keep-alive
      Date:
      - Wed, 09 Dec 2020 22:51:10 GMT
      Server:
      - openresty
      Access-Control-Allow-Origin:
      - "*"
      Access-Control-Allow-Methods:
      - GET, HEAD, POST, PUT, DELETE, OPTIONS
      Access-Control-Expose-Headers:
      - ETag, X-RateLimit-Limit, X-RateLimit-Remaining, X-RateLimit-Reset, Retry-After,
        Content-Length, Content-Range
      Cache-Control:
      - public, max-age=600
      Vary:
      - Accept-Encoding
      X-Cache:
      - Miss from cloudfront
      Via:
      - 1.1 e7ff4a714a3b1f464db9c76ee954a565.cloudfront.net (CloudFront)
      X-Amz-Cf-Pop:
      - DEN50-C2
      X-Amz-Cf-Id:
      - m4TBI1Ris9HdlAOEnQtfbL0BBfzAYaui3ICDUl4N7NumT8Go1fY_pw==
    body:
      encoding: UTF-8
      string: '{"page":2,"results":[{"adult":false,"backdrop_path":null,"genre_ids":[35,18],"id":323667,"original_language":"ru","original_title":"Вставай
        и бейся","overview":"Intertwined stories from the gladiator/athletes participating
        to the Calcio Storico Fiorentino yearly championship.","popularity":0.885,"poster_path":"/rPCOC0myV3Vr7nYGMAOAOpUXgH3.jpg","release_date":"2015-06-21","title":"Florence
        Fight Club","video":false,"vote_average":0,"vote_count":0},{"adult":false,"backdrop_path":null,"genre_ids":[28,18,80],"id":219897,"original_language":"en","original_title":"Barrio
        Brawler","overview":"A martial arts instructor must enter the world of illegal
        pit fighting in order to save his family and his dojo.","popularity":0.6,"poster_path":"/8tKjqaAHnIkVYjbvf4tgefSyOZN.jpg","release_date":"2013-08-27","title":"Barrio
        Brawler","video":false,"vote_average":4,"vote_count":4}],"total_pages":2,"total_results":22}'
  recorded_at: Wed, 09 Dec 2020 22:51:11 GMT
recorded_with: VCR 6.0.0
